<?xml version="1.0" encoding="UTF-8"?>
<Project>
   <description></description>
   <name>Kel 1 Web Auto</name>
   <tag></tag>
   <UUID>62f7e70c-4405-4b30-8373-5e5705591af4</UUID>
   <migratedVersion>5.9.0</migratedVersion>
   <pageLoadTimeout>0</pageLoadTimeout>
   <projectFileLocation>C:\Users\madns\Downloads\katalon\Kel 1 Web Auto\Kel 1 Web Auto.prj</projectFileLocation>
   <sourceContent>
      <sourceFolderList>
         <sourceFolderConfiguration>
            <url>Include/scripts/groovy</url>
         </sourceFolderConfiguration>
      </sourceFolderList>
      <systemFolderList>
         <systemFolderConfiguration>
            <url>Include/scripts/groovy</url>
         </systemFolderConfiguration>
         <systemFolderConfiguration>
            <url>Include/features</url>
         </systemFolderConfiguration>
         <systemFolderConfiguration>
            <url>Include/config</url>
         </systemFolderConfiguration>
      </systemFolderList>
   </sourceContent>
   <timeStampInProperties>false</timeStampInProperties>
   <type>WEBUI</type>
</Project>
